Visualización de datos
…
library(datos)

Nuestro primer gráfico

Crearemos nuestro primer gráfico con ggplot y probaremos con datos reales que a mayor tamaño de motor de un coche, mayor consumo de gasolina tendrá. Para ello, debemos estar seguros de haber cargado correctamente tanto el Tydiverse como el conjunto datos. Enseguida mostraremos un data frame, lo cual es un conjunto rectangular de datos organizados en columnas (que vienen siendo las variables) y filas (éstas son las observaciones). Este data frame es llamado millas, el cual está contenido en datos (datos::millas).

millas

# A tibble: 234 × 11
   fabrica…¹ modelo cilin…²  anio cilin…³ trans…⁴ tracc…⁵ ciudad autop…⁶ combu…⁷
   <chr>     <chr>    <dbl> <int>   <int> <chr>   <chr>    <int>   <int> <chr>  
 1 audi      a4         1.8  1999       4 auto(l… d           18      29 p      
 2 audi      a4         1.8  1999       4 manual… d           21      29 p      
 3 audi      a4         2    2008       4 manual… d           20      31 p      
 4 audi      a4         2    2008       4 auto(a… d           21      30 p      
 5 audi      a4         2.8  1999       6 auto(l… d           16      26 p      
 6 audi      a4         2.8  1999       6 manual… d           18      26 p      
 7 audi      a4         3.1  2008       6 auto(a… d           18      27 p      
 8 audi      a4 qu…     1.8  1999       4 manual… 4           18      26 p      
 9 audi      a4 qu…     1.8  1999       4 auto(l… 4           16      25 p      
10 audi      a4 qu…     2    2008       4 manual… 4           20      28 p      
# … with 224 more rows, 1 more variable: clase <chr>, and abbreviated variable
#   names ¹​fabricante, ²​cilindrada, ³​cilindros, ⁴​transmision, ⁵​traccion,
#   ⁶​autopista, ⁷​combustible
…
